{
    "payload": {
        "attachments": [{
            "fallback": "<[case_url]|[case_subject]> (#[case_id]) от [user_full_name]",
            "pretext": "<[case_url]|[case_subject]> (#[case_id]) от [user_full_name]",
            "color": "#4CA9E4",
            "text": "Превышено максимальное время ожидания ответа в поддержке",
            "fields": [{
                "title": "Содержание",
                "value": "Ссыдка на обращение: [case_url] \n Описание обращения: [case_description|text]",
                "short": false
            }]
        }]
    }
}